{
    "token": "Vj7Ch8ZG7Ml1149r5QgzdFOp",
    "team_id": "T0261211E",
    "team_domain": "vehikl",
    "channel_id": "CEPE43JQ0",
    "channel_name": "test",
    "user_id": "UDA2PU6GL",
    "user_name": "c.griffin",
    "command": "\/mentor-list",
    "text": null,
    "response_url": "https:\/\/hooks.slack.com\/commands\/T0261211E\/776413537061\/Xoy0E5BOTDPEH3cCE66tFOvG",
    "trigger_id": "769990771857.2205069048.5ebd90ce648aa8ca4220dcbfdcefee64"
}
